hw4
…
# Read the data from the website
glass_data <- read_csv("https://www4.stat.ncsu.edu/~online/datasets/glass.data", col_names = column_names)

Rows: 214 Columns: 11
── Column specification ────────────────────────────────────────────────────────
Delimiter: ","
dbl (11): ID, RI, Na, Mg, Al, Si, K, Ca, Ba, Fe, Type

ℹ Use `spec()` to retrieve the full column specification for this data.
ℹ Specify the column types or set `show_col_types = FALSE` to quiet this message.

# print out the tibble
glass_data

# A tibble: 214 × 11
      ID    RI    Na    Mg    Al    Si     K    Ca    Ba    Fe  Type
   <dbl> <dbl> <dbl> <dbl> <dbl> <dbl> <dbl> <dbl> <dbl> <dbl> <dbl>
 1     1  1.52  13.6  4.49  1.1   71.8  0.06  8.75     0  0        1
 2     2  1.52  13.9  3.6   1.36  72.7  0.48  7.83     0  0        1
 3     3  1.52  13.5  3.55  1.54  73.0  0.39  7.78     0  0        1
 4     4  1.52  13.2  3.69  1.29  72.6  0.57  8.22     0  0        1
 5     5  1.52  13.3  3.62  1.24  73.1  0.55  8.07     0  0        1
 6     6  1.52  12.8  3.61  1.62  73.0  0.64  8.07     0  0.26     1
 7     7  1.52  13.3  3.6   1.14  73.1  0.58  8.17     0  0        1
 8     8  1.52  13.2  3.61  1.05  73.2  0.57  8.24     0  0        1
 9     9  1.52  14.0  3.58  1.37  72.1  0.56  8.3      0  0        1
10    10  1.52  13    3.6   1.36  73.0  0.57  8.4      0  0.11     1
# ℹ 204 more rows
…
# continue the chain and keep only obs with certain conditions
glass_data_filtered <- glass_data %>%
  filter(Fe < 0.2 & (Type_of_glass == "tableware" | Type_of_glass == "headlamps"))

glass_data_filtered

# A tibble: 38 × 11
      ID    RI    Na    Mg    Al    Si     K    Ca    Ba    Fe Type_of_glass
   <dbl> <dbl> <dbl> <dbl> <dbl> <dbl> <dbl> <dbl> <dbl> <dbl> <chr>        
 1   177  1.52  14    2.39  1.56  72.4  0     9.57  0        0 tableware    
 2   178  1.52  13.8  2.41  1.19  72.8  0     9.77  0        0 tableware    
 3   179  1.52  14.5  2.24  1.62  72.4  0     9.26  0        0 tableware    
 4   180  1.52  14.1  2.19  1.66  72.7  0     9.32  0        0 tableware    
 5   181  1.51  14.4  1.74  1.54  74.6  0     7.59  0        0 tableware    
 6   182  1.52  15.0  0.78  1.74  72.5  0     9.95  0        0 tableware    
 7   183  1.52  14.2  0     2.09  72.7  0    10.9   0        0 tableware    
 8   184  1.52  14.6  0     0.56  73.5  0    11.2   0        0 tableware    
 9   185  1.51  17.4  0     0.34  75.4  0     6.65  0        0 tableware    
10   186  1.51  13.7  3.2   1.81  72.8  1.76  5.43  1.19     0 headlamps    
# ℹ 28 more rows
…
# start a chain , remove the 'seq_name', ..
yeast_data_clean <- yeast_data2 %>%
  select(-Seq_Name, -nuc)

# continue chain to add columns corresponding to the mean and median
yeast_data_clean2 <- yeast_data2 %>%
  select(-Seq_Name, -nuc) %>%
  group_by(class) %>%
  mutate(across(c(mcg, gvh, alm, mit, erl, pox, vac), 
                list(mean = ~ mean(.), median = ~ median(.)), 
                .names = "{col}_{fn}"))

yeast_data_clean2

# A tibble: 1,484 × 31
# Groups:   class [31]
   mcg     gvh   alm   mit   erl   pox   vac class   X11   X12   X13   X14   X15
   <lgl> <dbl> <dbl> <dbl> <dbl> <dbl> <dbl> <dbl> <dbl> <dbl> <dbl> <dbl> <dbl>
 1 NA     0.58    NA  0.61    NA  0.47    NA    NA   0.5    NA   0      NA  0.48
 2 NA     0.43    NA  0.67    NA  0.48    NA    NA   0.5    NA   0      NA  0.53
 3 NA     0.64    NA  0.62    NA  0.49    NA    NA   0.5    NA   0      NA  0.53
 4 NA     0.58    NA  0.44    NA  0.57    NA    NA   0.5    NA   0      NA  0.54
 5 NA     0.42    NA  0.44    NA  0.48    NA    NA   0.5    NA   0      NA  0.48
 6 NA     0.51    NA  0.4     NA  0.56    NA    NA   0.5    NA   0.5    NA  0.49
 7 NA     0.5     NA  0.54    NA  0.48    NA    NA   0.5    NA   0      NA  0.53
 8 NA     0.48    NA  0.45    NA  0.59    NA    NA   0.5    NA   0      NA  0.58
 9 NA     0.55    NA  0.5     NA  0.66    NA    NA   0.5    NA   0      NA  0.49
10 NA     0.4     NA  0.39    NA  0.6     NA    NA   0.5    NA   0      NA  0.58
# ℹ 1,474 more rows
# ℹ 18 more variables: X16 <dbl>, X17 <dbl>, X18 <dbl>, X19 <chr>,
#   mcg_mean <dbl>, mcg_median <lgl>, gvh_mean <dbl>, gvh_median <dbl>,
#   alm_mean <dbl>, alm_median <dbl>, mit_mean <dbl>, mit_median <dbl>,
#   erl_mean <dbl>, erl_median <dbl>, pox_mean <dbl>, pox_median <dbl>,
#   vac_mean <dbl>, vac_median <dbl>
…
library(readxl)

Warning: package 'readxl' was built under R version 4.3.3

# specify path to the saved excel
file_path <- "C:/Users/tangw1/Desktop/ST558_repo/hw4/white-wine.xlsx"

# read
white_wine_data <- read_excel(file_path, sheet = 1)

# print out tibble
print(white_wine_data)

# A tibble: 4,898 × 12
   `fixed acidity` `volatile acidity` `citric acid` `residual sugar` chlorides
             <dbl>              <dbl>         <dbl>            <dbl>     <dbl>
 1               7               0.27          0.36             20.7     0.045
 2              63               0.3           0.34              1.6     0.049
 3              81               0.28          0.4               6.9     0.05 
 4              72               0.23          0.32              8.5     0.058
 5              72               0.23          0.32              8.5     0.058
 6              81               0.28          0.4               6.9     0.05 
 7              62               0.32          0.16              7       0.045
 8               7               0.27          0.36             20.7     0.045
 9              63               0.3           0.34              1.6     0.049
10              81               0.22          0.43              1.5     0.044
# ℹ 4,888 more rows
# ℹ 7 more variables: `free sulfur dioxide` <dbl>,
#   `total sulfur dioxide` <dbl>, density <dbl>, pH <dbl>, sulphates <dbl>,
#   alcohol <dbl>, quality <dbl>
…
# add mean etc
final_wine_data <- combined_wine_data %>%
  filter(quality > 6.5, alcohol < 132) %>%
  arrange(desc(quality)) %>%
  select(contains("acid"), alcohol, wine_type, quality) %>%
  group_by(quality) %>%
  mutate(
    alcohol_mean = mean(alcohol),
    alcohol_sd = sd(alcohol)
  ) %>%
  ungroup()

print(final_wine_data)

# A tibble: 1,206 × 8
   fixed_acidity volatile_acidity citric_acid alcohol wine_type quality
           <dbl>            <dbl>       <dbl>   <dbl> <chr>       <dbl>
 1            91             0.27        0.45     104 white           9
 2            66             0.36        0.29     124 white           9
 3            74             0.24        0.36     125 white           9
 4            69             0.36        0.34     127 white           9
 5            71             0.26        0.49     129 white           9
 6            62             0.66        0.48     128 white           8
 7            62             0.66        0.48     128 white           8
 8            68             0.26        0.42     105 white           8
 9            67             0.23        0.31     107 white           8
10            67             0.23        0.31     107 white           8
# ℹ 1,196 more rows
# ℹ 2 more variables: alcohol_mean <dbl>, alcohol_sd <dbl>
